<svg width="16" height="16" version="1.1" viewBox="0 0 16 16" xmlns="http://www.w3.org/2000/svg">
<g transform="translate(0 -1036.4)">
<path transform="translate(0 1036.4)" d="m7 1v3.1328l-1.4453-0.96484-1.1094 1.6641 3 2a1.0001 1.0001 0 0 0 1.1094 0l3-2-1.1094-1.6641-1.4453 0.96484v-3.1328h-2zm-1.5 8c-0.831 0-1.5 0.669-1.5 1.5v1.5h-2v2h12v-2h-2v-1.5c0-0.831-0.669-1.5-1.5-1.5h-5z" fill="#a5efac"/>
</g>
</svg>